[gd_scene load_steps=4 format=2]

[ext_resource path="res://assets/slow-mo.png" type="Texture" id=1]

[sub_resource type="GDScript" id=1]
script/source = "extends Area2D


func _ready():
	position = global.get_random_maze_pos()


func _on_bubble_body_entered(body):
	if body.name in ['pacman','ship']:
		conf.slow_motion()
		queue_free()
"

[sub_resource type="CircleShape2D" id=2]
radius = 11.0

[node name="slow-mo" type="Area2D"]
collision_layer = 0
collision_mask = 3
script = SubResource( 1 )

[node name="sprite" type="Sprite" parent="."]
position = Vector2( 20, 20 )
scale = Vector2( 0.5, 0.5 )
texture = ExtResource( 1 )

[node name="CollisionShape2D" type="CollisionShape2D" parent="."]
position = Vector2( 20, 20 )
shape = SubResource( 2 )
[connection signal="body_entered" from="." to="." method="_on_bubble_body_entered"]
